     1        0080      COM_R 	EQU 80H
     2        0001      CLR_D 	EQU 1
     3        0082      STAT_R	EQU 82H
     4        0018      OBR_L 	EQU 18H
     5        000F      C_B_ON 	EQU 0FH
     6        0002      R_HOME 	EQU 2
     7        0000      SET_C 	EQU 00H
     8        0007      SHIFT_L	EQU 7H
     9        0097      LED 	EQU P1.7
    10        0095      BUZZER	EQU P1.5
    11  0000: 02 01 00  	LJMP BEGIN
    12  0100:           	ORG 100H
    13                  ; PROGRAM     $$$$$$$$$$$$$$$$$$$$$$$$$$$$$$$$$$$$$$$$$$$$$$$$$$$$$$$$$$$$$$$$$$$$$$$$$$$$$$$
    14                  	
    15  0100:           BEGIN:
    16                  										;TWORZENIE ZNAKÓW WŁASNYCH
    17  0100: 78 80     	MOV R0,#COM_R
    18  0102: 90 02 8F  	MOV DPTR,#TAB_ZN
    19  0105: 12 02 7A  	LCALL TWORZ_ZN
    20  0108: 79 21     	MOV R1,#21H
    21  010A: 75 F0 00  	MOV 0F0H,#0
    22  010D: C2 E8     	CLR 0E8H.0
    23  010F: C2 E9     	CLR 0E8H.1
    24  0111: 78 80     	MOV R0,#COM_R
    25  0113: 79 82     	MOV R1,#STAT_R
    26  0115: 74 01     	MOV A,#CLR_D
    27  0117: 51 46     	ACALL WYSLIJ
    28  0119: 74 00     	MOV A,#SET_C
    29  011B: 51 46     	ACALL WYSLIJ
    30  011D: 74 0F     	MOV A,#C_B_ON
    31  011F: 51 46     	ACALL WYSLIJ
    32  0121: 08        	INC R0 
    33  0122: 90 02 E1  	MOV DPTR,#TEKST
    34  0125: 51 52     	ACALL NAPISZ
    35  0127: 18        	DEC R0	
    36  0128:           KLAW:									;SPRAWDZENIE KLAWIATURY 8-F
    37  0128: 90 FF 22  	MOV DPTR,#0FF22H
    38  012B: E0        	MOVX A,@DPTR
    39  012C: B4 FF 01  	CJNE A,#255,BUZZER_20MS_2
    40  012F: 22        	RET
    41  0130:           BUZZER_20MS_2:							;BUZZER PRZEZ 20 MS
    42  0130: 75 89 10  	MOV TMOD,#10H
    43  0133: C2 95     	CLR BUZZER
    44  0135:           BUZERR:
    45  0135: 75 8B 00  	MOV TL1,#00H
    46  0138: 75 8D 8D  	MOV TH1,#08DH   					; WPISANIE WARTOŚCI POCZĄTKOWEJ, TAK ABY ODMIERZAŁ 20MS
    47  013B: D2 8E     	SETB TR1
    48  013D: 30 8F FD  	JNB TF1,$
    49  0140: C2 8E     	CLR TR1
    50  0142: C2 8F     	CLR TF1
    51  0144: D2 95     	SETB BUZZER
    52  0146: 30 E2 36  	JNB ACC.2,BEGINN
    53  0149: 20 F0 0B  	JB 0F0H.0,PYTANIE
    54  014C: 30 E3 1B  	JNB ACC.3,DALEJJ
    55  014F:           KOLEJNE:
    56  014F: 20 E8 0A  	JB 0E8H.0,ODPOWIEDZ_1
    57  0152: 20 E9 0D  	JB 0E8H.1,ODPOWIEDZ_2
    58  0155: 80 17     	SJMP KLAW_2
    59  0157:           PYTANIE:
    60  0157: 30 E3 51  	JNB ACC.3,PYTANIE_00
    61  015A: 80 F3     	SJMP KOLEJNE
    62  015C:           ODPOWIEDZ_1:
    63  015C: 30 E4 56  	JNB ACC.4,NIESTETY
    64  015F: 30 E5 0A  	JNB ACC.5,BRAWOO
    65  0162:           ODPOWIEDZ_2:
    66  0162: 30 E4 07  	JNB ACC.4,BRAWOO
    67  0165: 30 E5 4D  	JNB ACC.5,NIESTETY
    68  0168: 80 04     	SJMP KLAW_2	
    69  016A:           DALEJJ: 								;WYDŁUŻENIE DŁUGOŚCI SKOKÓW WZGLĘDNYCH
    70  016A: 21 EB     	AJMP DALEJ
    71  016C:           BRAWOO:	
    72  016C: 21 D6     	AJMP BRAWO
    73  016E:           KLAW_2:									;SPRAWDZENIE KLAWIATURY 0-7
    74  016E: 30 F0 07  	JNB 0F0H.0,DELAY
    75  0171: 90 FF 21  	MOV DPTR,#0FF21H
    76  0174: E0        	MOVX A,@DPTR
    77  0175: B4 FF 09  	CJNE A,#255,BUZZER_20MS 
    78  0178:           DELAY:
    79  0178: 74 03     	MOV A,#3
    80  017A: 12 81 12  	LCALL DELAY_100MS
    81  017D: 41 64     	AJMP PRZESUW
    82  017F:           BEGINN:
    83  017F: 21 00     	AJMP BEGIN
    84  0181:           BUZZER_20MS:						;BUZZER PRZEZ 20 MS
    85  0181: 75 89 10  	MOV TMOD,#10H
    86  0184: C2 95     	CLR BUZZER
    87  0186:           BUZZERR:
    88  0186: 75 8B 00  	MOV TL1,#00H
    89  0189: 75 8D 8D  	MOV TH1,#08DH					; WPISANIE WARTOŚCI POCZĄTKOWEJ, TAK ABY ODMIERZAŁ 20MS
    90  018C: D2 8E     	SETB TR1
    91  018E: 30 8F FD  	JNB TF1,$
    92  0191: C2 8E     	CLR TR1
    93  0193: C2 8F     	CLR TF1
    94  0195: D2 95     	SETB BUZZER
    95  0197: 30 E0 11  	JNB ACC.0,PYTANIE_00
    96  019A: 30 E1 10  	JNB ACC.1,PYTANIE_11
    97  019D: 30 E2 0F  	JNB ACC.2,PYTANIE_22
    98  01A0: 30 E3 0E  	JNB ACC.3,PYTANIE_33
    99  01A3: 30 E4 0D  	JNB ACC.4,PYTANIE_44
   100  01A6: 30 E5 02  	JNB ACC.5,PYTANIE_00	
   101  01A9: 80 CD     	SJMP DELAY
   102  01AB:           PYTANIE_00:							;WYDŁUŻENIE SKOKÓW WZGLĘDNYCH
   103  01AB: 21 F7     	AJMP PYTANIE_0
   104  01AD:           PYTANIE_11:
   105  01AD: 41 05     	AJMP PYTANIE_1
   106  01AF:           PYTANIE_22:
   107  01AF: 41 13     	AJMP PYTANIE_2
   108  01B1:           PYTANIE_33:
   109  01B1: 41 21     	AJMP PYTANIE_3
   110  01B3:           PYTANIE_44:
   111  01B3: 41 2F     	AJMP PYTANIE_4
   112  01B5:           NIESTETY:							;WYSWIETLENIE TEKSTU NIESTETY
   113  01B5: D2 F7     	SETB 0F0H.7
   114  01B7: C2 95     	CLR BUZZER
   115  01B9: 31 CA     	ACALL WPISYWANIE
   116  01BB: 90 04 AC  	MOV DPTR,#TEKST_NIESTETY
   117  01BE: 51 52     	ACALL NAPISZ	
   118  01C0:           NIESTETY_CD:
   119  01C0: 18        	DEC R0
   120  01C1: 74 14     	MOV A,#20
   121  01C3: 12 81 12  	LCALL DELAY_100MS
   122  01C6: D2 95     	SETB BUZZER
   123  01C8: 21 00     	AJMP BEGIN	
   124  01CA:           WPISYWANIE:
   125  01CA: 78 80     	MOV R0,#80H
   126  01CC: 74 01     	MOV A,#CLR_D
   127  01CE: 51 46     	ACALL WYSLIJ
   128  01D0: 74 02     	MOV A,#R_HOME
   129  01D2: 51 46     	ACALL WYSLIJ
   130  01D4: 08        	INC R0
   131  01D5: 22        	RET
   132  01D6:           BRAWO:								 ;WYŚWIETLENIE TEKSTU BRAWO
   133  01D6: D2 F6     	SETB 0F0H.6
   134  01D8: C2 97     	CLR LED
   135  01DA: 31 CA     	ACALL WPISYWANIE
   136  01DC: 90 04 74  	MOV DPTR,#TEKST_BRAWO
   137  01DF: 51 52     	ACALL NAPISZ
   138  01E1:           BRAWO_CD:
   139  01E1: 18        	DEC R0
   140  01E2: 74 14     	MOV A,#20
   141  01E4: 12 81 12  	LCALL DELAY_100MS
   142  01E7: D2 97     	SETB LED
   143  01E9: 21 00     	AJMP BEGIN  
   144                  
   145  01EB:           DALEJ:								;WYŚWIETLENIE DRUGIEGO TEKSTU PO WCIŚNIĘCIU STRZAŁKI
   146  01EB: D2 F0     	SETB 0F0H.0
   147  01ED: 31 CA     	ACALL WPISYWANIE
   148  01EF: 90 03 14  	MOV DPTR,#TEKST_2
   149  01F2: 51 52     	ACALL NAPISZ
   150  01F4: 18        	DEC R0
   151  01F5: 80 FE     	SJMP $
   152  01F7:           PYTANIE_0:
   153  01F7: 51 3D     	ACALL TWORZENIE
   154  01F9: D2 F1     	SETB 0F0H.1						;OKREŚLA WYBRANE PYTANIE
   155  01FB: D2 E8     	SETB 0E8H.0    					;WYZNACZA POPRAWNA ODPOWIEDŹ
   156  01FD: 31 CA     	ACALL WPISYWANIE
   157  01FF: 90 03 5B  	MOV DPTR,#TEKST_3
   158  0202: 51 52     	ACALL NAPISZ
   159  0204: 18        	DEC R0
   160  0205:           PYTANIE_1:
   161  0205: 51 3D     	ACALL TWORZENIE
   162  0207: D2 F2     	SETB 0F0H.2
   163  0209: D2 E9     	SETB 0E8H.1
   164  020B: 31 CA     	ACALL WPISYWANIE
   165  020D: 90 03 91  	MOV DPTR,#TEKST_4
   166  0210: 51 52     	ACALL NAPISZ
   167  0212: 18        	DEC R0
   168  0213:           PYTANIE_2:
   169  0213: 51 3D     	ACALL TWORZENIE
   170  0215: D2 F3     	SETB 0F0H.3
   171  0217: D2 E9     	SETB 0E8H.1
   172  0219: 31 CA     	ACALL WPISYWANIE
   173  021B: 90 03 C9  	MOV DPTR,#TEKST_5
   174  021E: 51 52     	ACALL NAPISZ
   175  0220: 18        	DEC R0
   176  0221:           PYTANIE_3:
   177  0221: 51 3D     	ACALL TWORZENIE
   178  0223: D2 F4     	SETB 0F0H.4
   179  0225: D2 E8     	SETB 0E8H.0
   180  0227: 31 CA     	ACALL WPISYWANIE
   181  0229: 90 04 01  	MOV DPTR,#TEKST_6
   182  022C: 51 52     	ACALL NAPISZ
   183  022E: 18        	DEC R0
   184  022F:           PYTANIE_4:
   185  022F: 51 3D     	ACALL TWORZENIE
   186  0231: D2 F5     	SETB 0F0H.5
   187  0233: D2 E9     	SETB 0E8H.1
   188  0235: 31 CA     	ACALL WPISYWANIE
   189  0237: 90 04 3A  	MOV DPTR,#TEKST_7
   190  023A: 51 52     	ACALL NAPISZ
   191  023C: 18        	DEC R0
   192  023D:           TWORZENIE:
   193  023D: 78 80     	MOV R0,#COM_R
   194  023F: 90 02 D0  	MOV DPTR,#TAB_ZN_2
   195  0242: 12 02 7A  	LCALL TWORZ_ZN
   196  0245: 22        	RET
   197                  ;WYSYŁANIE POLECEŃ DO WYŚWIETLACZA $$$$$$$$$$$$$$$$$$$$$$$$$$$$$$$$$$$$$$$$$$$$$$$$$$$$$$$$
   198  0246:           WYSLIJ:
   199  0246: C0 E0     	PUSH ACC
   200  0248:           ZAJETY:
   201  0248: 79 82     	MOV R1,#STAT_R
   202  024A: E3        	MOVX A,@R1
   203  024B: 20 E7 FA  	JB ACC.7,ZAJETY
   204  024E: D0 E0     	POP ACC
   205  0250: F2        	MOVX @R0,A
   206  0251: 22        	RET
   207                  ;WYSWIETLENIE TEKSTU  $$$$$$$$$$$$$$$$$$$$$$$$$$$$$$$$$$$$$$$$$$$$$$$$$$$$$$$$$$$$$$$$$$$$$
   208  0252:           NAPISZ:
   209  0252: 7A 00     	MOV R2,#0
   210  0254:           NAST_ZN:
   211  0254: EA        	MOV A,R2
   212  0255: 93        	MOVC A,@A+DPTR
   213  0256: B4 FF 16  	CJNE A,#255,PISZ
   214  0259: 20 F6 18  	JB 0F0H.6,BRAWO_CDD
   215  025C: 20 F7 18  	JB 0F0H.7,NIESTETY_CDD
   216  025F: 74 0A     	MOV A,#10
   217  0261: 12 81 12  	LCALL DELAY_100MS	
   218  0264:           PRZESUW:
   219  0264: 78 80     	MOV R0,#80H
   220  0266: 74 18     	MOV A,#OBR_L
   221  0268: 51 46     	ACALL WYSLIJ
   222  026A: 31 28     	ACALL KLAW
   223  026C: 02 01 6E  	LJMP KLAW_2
   224  026F:           PISZ:
   225  026F: 51 46     	ACALL WYSLIJ
   226  0271: 0A        	INC R2
   227  0272: 80 E0     	SJMP NAST_ZN
   228  0274:           BRAWO_CDD:
   229  0274: 02 01 E1  	LJMP BRAWO_CD
   230  0277:           NIESTETY_CDD:
   231  0277: 02 01 C0  	LJMP NIESTETY_CD
   232                  ;TWORZENIE ZNAKU  $$$$$$$$$$$$$$$$$$$$$$$$$$$$$$$$$$$$$$$$$$$$$$$$$$$$$$$$$$$$$$$$$$$$$$	
   233  027A:           TWORZ_ZN:
   234  027A: 7A 00     	MOV R2,#0	
   235  027C: 7B 40     	MOV R3,#40H
   236  027E:           LOOP:
   237  027E: EB        	MOV A,R3
   238  027F: 51 46     	ACALL WYSLIJ
   239  0281: 08        	INC R0
   240  0282: EA        	MOV A,R2
   241  0283: 93        	MOVC A,@A+DPTR
   242  0284: B4 FF 01  	CJNE A,#255,SEND_LCD
   243  0287: 22        	RET
   244  0288:           SEND_LCD:
   245  0288: 51 46     	ACALL WYSLIJ
   246  028A: 0A        	INC R2
   247  028B: 0B        	INC R3
   248  028C: 18        	DEC R0
   249  028D: 80 EF     	SJMP LOOP
   250  028F:           TAB_ZN:
   251                  
   252  028F: 08 0C 0E  	DB 8H,0CH,0EH,1FH,0EH,0CH,8H,0H			; STRZAŁKA W PRAWO	0H
        0292: 1F 0E 0C 
        0295: 08 00 
   253  0297: 00 00 0E  	DB 0H,0H,0EH,11H,1FH,10H,0EH,4H		    ; ę					1H
        029A: 11 1F 10 
        029D: 0E 04 
   254  029F: 00 02 0C  	DB 0H,2H,0CH,15H,11H,11H,11H,0H			; ń					2H
        02A2: 15 11 11 
        02A5: 11 00 
   255  02A7: 00 02 0E  	DB 0H,2H,0EH,15H,11H,11H,0EH,0H			; ó					3H
        02AA: 15 11 11 
        02AD: 0E 00 
   256  02AF: 00 04 1F  	DB 0H,4H,1FH,12H,04H,08H,1FH,0H			; ź					4H
        02B2: 12 04 08 
        02B5: 1F 00 
   257  02B7: 00 04 0E  	DB 0H,04H,0EH,10H,0EH,01H,1EH,0H		; ś					5H
        02BA: 10 0E 01 
        02BD: 1E 00 
   258  02BF: 00 00 0E  	DB 0H,0H,0EH,01H,0FH,11H,0FH,02H		; ą					6H
        02C2: 01 0F 11 
        02C5: 0F 02 
   259  02C7: 00 02 0E  	DB 0H,2H,0EH,15H,10H,11H,0EH,0H			; ć					7H
        02CA: 15 10 11 
        02CD: 0E 00 
   260  02CF: FF        	DB 255
   261                  	
   262  02D0:           TAB_ZN_2:
   263  02D0: 04 0E 1F  	DB 04H,0EH,1FH,4H,4H,4H,4H,4H           ; 0H  STRZAŁKA W GÓRĘ
        02D3: 04 04 04 
        02D6: 04 04 
   264  02D8: 04 04 04  	DB 4H,4H,4H,4H,4H,1FH,0EH,4H			; 1H  STRZAŁKA W DÓŁ
        02DB: 04 04 1F 
        02DE: 0E 04 
   265  02E0: FF        	DB 255
   266                  	
   267                  ;TEKSTY  $$$$$$$$$$$$$$$$$$$$$$$$$$$$$$$$$$$$$$$$$$$$$$$$$$$$$$$$$$$$$$$$$$$$$$$$$$$$$$$$$$$$$$$
   268  02E1:           TEKST:
   269  02E1: 5A 6F 73  	DB 'Zosta',2H,' milionerem, sprawd',4H,' si',1H,' i wygraj   ',02DH,0H,' dalej', 255
        02E4: 74 61 02 
        02E7: 20 6D 69 
        02EA: 6C 69 6F 
        02ED: 6E 65 72 
        02F0: 65 6D 2C 
        02F3: 20 73 70 
        02F6: 72 61 77 
        02F9: 64 04 20 
        02FC: 73 69 01 
        02FF: 20 69 20 
        0302: 77 79 67 
        0305: 72 61 6A 
        0308: 20 20 20 
        030B: 2D 00 20 
        030E: 64 61 6C 
        0311: 65 6A FF 
   270                  	
   271  0314:           TEKST_2:																						 
   272  0314: 4B 6C 61  	DB 'Klawisze 0-4 wybieraj',6H,' pytanie          ',0F7H,02DH,' powr',3H,'t      pytanie nr 1 ',02DH,0H, 255
        0317: 77 69 73 
        031A: 7A 65 20 
        031D: 30 2D 34 
        0320: 20 77 79 
        0323: 62 69 65 
        0326: 72 61 6A 
        0329: 06 20 70 
        032C: 79 74 61 
        032F: 6E 69 65 
        0332: 20 20 20 
        0335: 20 20 20 
        0338: 20 20 20 
        033B: 20 F7 2D 
        033E: 20 70 6F 
        0341: 77 72 03 
        0344: 74 20 20 
        0347: 20 20 20 
        034A: 20 70 79 
        034D: 74 61 6E 
        0350: 69 65 20 
        0353: 6E 72 20 
        0356: 31 20 2D 
        0359: 00 FF 
   273  035B:           TEKST_3:
   274  035B: 20 43 7A  	DB ' Czy ko',2H,' potrafi fruwa',7H,'?                 ',0H,'TAK    NIE',1H,255  
        035E: 79 20 6B 
        0361: 6F 02 20 
        0364: 70 6F 74 
        0367: 72 61 66 
        036A: 69 20 66 
        036D: 72 75 77 
        0370: 61 07 3F 
        0373: 20 20 20 
        0376: 20 20 20 
        0379: 20 20 20 
        037C: 20 20 20 
        037F: 20 20 20 
        0382: 20 20 00 
        0385: 54 41 4B 
        0388: 20 20 20 
        038B: 20 4E 49 
        038E: 45 01 FF 
   275                  	
   276  0391:           TEKST_4:
   277  0391: 20 20 43  	DB '  Czy ',7H,'ma to owad?                        ',0H,'TAK     NIE',1H,255
        0394: 7A 79 20 
        0397: 07 6D 61 
        039A: 20 74 6F 
        039D: 20 6F 77 
        03A0: 61 64 3F 
        03A3: 20 20 20 
        03A6: 20 20 20 
        03A9: 20 20 20 
        03AC: 20 20 20 
        03AF: 20 20 20 
        03B2: 20 20 20 
        03B5: 20 20 20 
        03B8: 20 20 20 
        03BB: 00 54 41 
        03BE: 4B 20 20 
        03C1: 20 20 20 
        03C4: 4E 49 45 
        03C7: 01 FF 
   278                  	
   279  03C9:           TEKST_5:
   280  03C9: 43 7A 79  	DB 'Czy m',6H,'dro',5H,7H,' jest cenna?                   ',0H,'TAK     NIE',1H,255
        03CC: 20 6D 06 
        03CF: 64 72 6F 
        03D2: 05 07 20 
        03D5: 6A 65 73 
        03D8: 74 20 63 
        03DB: 65 6E 6E 
        03DE: 61 3F 20 
        03E1: 20 20 20 
        03E4: 20 20 20 
        03E7: 20 20 20 
        03EA: 20 20 20 
        03ED: 20 20 20 
        03F0: 20 20 20 
        03F3: 00 54 41 
        03F6: 4B 20 20 
        03F9: 20 20 20 
        03FC: 4E 49 45 
        03FF: 01 FF 
   281  0401:           TEKST_6:
   282  0401: 20 20 20  	DB '   Czy  to  ma',5H,7H,'?                            ',0H,'TAK   NIE',1H,255
        0404: 43 7A 79 
        0407: 20 20 74 
        040A: 6F 20 20 
        040D: 6D 61 05 
        0410: 07 3F 20 
        0413: 20 20 20 
        0416: 20 20 20 
        0419: 20 20 20 
        041C: 20 20 20 
        041F: 20 20 20 
        0422: 20 20 20 
        0425: 20 20 20 
        0428: 20 20 20 
        042B: 20 20 20 
        042E: 00 54 41 
        0431: 4B 20 20 
        0434: 20 4E 49 
        0437: 45 01 FF 
   283                  	
   284  043A:           TEKST_7:
   285  043A: 20 20 20  	DB '   Czy jestem ',5H,'wietny?                       ',0H,'TAK    NIE',1H,255
        043D: 43 7A 79 
        0440: 20 6A 65 
        0443: 73 74 65 
        0446: 6D 20 05 
        0449: 77 69 65 
        044C: 74 6E 79 
        044F: 3F 20 20 
        0452: 20 20 20 
        0455: 20 20 20 
        0458: 20 20 20 
        045B: 20 20 20 
        045E: 20 20 20 
        0461: 20 20 20 
        0464: 20 20 20 
        0467: 00 54 41 
        046A: 4B 20 20 
        046D: 20 20 4E 
        0470: 49 45 01 
        0473: FF 
   286                  	
   287  0474:           TEKST_BRAWO:
   288  0474: 42 52 41  	DB 'BRAWO,                                  dobra odpowied',4H,255
        0477: 57 4F 2C 
        047A: 20 20 20 
        047D: 20 20 20 
        0480: 20 20 20 
        0483: 20 20 20 
        0486: 20 20 20 
        0489: 20 20 20 
        048C: 20 20 20 
        048F: 20 20 20 
        0492: 20 20 20 
        0495: 20 20 20 
        0498: 20 20 20 
        049B: 20 64 6F 
        049E: 62 72 61 
        04A1: 20 6F 64 
        04A4: 70 6F 77 
        04A7: 69 65 64 
        04AA: 04 FF 
   289                  	
   290  04AC:           TEKST_NIESTETY:
   291  04AC: 4E 69 65  	DB 'Niestety,                               pr',3H,'buj dalej',255
        04AF: 73 74 65 
        04B2: 74 79 2C 
        04B5: 20 20 20 
        04B8: 20 20 20 
        04BB: 20 20 20 
        04BE: 20 20 20 
        04C1: 20 20 20 
        04C4: 20 20 20 
        04C7: 20 20 20 
        04CA: 20 20 20 
        04CD: 20 20 20 
        04D0: 20 20 20 
        04D3: 20 70 72 
        04D6: 03 62 75 
        04D9: 6A 20 64 
        04DC: 61 6C 65 
        04DF: 6A FF 
